<svg id="logo" xmlns="http://www.w3.org/2000/svg" width="539.031" height="158" viewBox="0 0 539.031 158">
  <defs>
    <style>
      .cls-1 {
        fill: #212121;
      }

      .cls-1, .cls-2, .cls-3, .cls-4 {
        fill-rule: evenodd;
      }

      .cls-2, .cls-4 {
        fill: #fff;
        stroke: #212121;
        stroke-linejoin: round;
        stroke-width: 8px;
      }

      .cls-3 {
        fill: #f5f5f5;
      }

      .cls-4 {
        fill-opacity: 0;
      }
    </style>
  </defs>
  <path id="Logo_copy" data-name="Logo copy" class="cls-1" d="M231.757,69.133h-7.933v57.828a12.781,12.781,0,0,0,12.823,12.834h49.2v-7.89h-49.2a4.756,4.756,0,0,1-3.493-1.448,4.852,4.852,0,0,1-1.4-3.5V69.133Zm89.062,0a21.984,21.984,0,0,0-22,22.023v26.667a21.984,21.984,0,0,0,22,21.972h36.074a21.984,21.984,0,0,0,22-21.972V91.156a21.984,21.984,0,0,0-22-22.023H320.819Zm50.144,48.69a14.146,14.146,0,0,1-14.07,14.082H320.819a14.146,14.146,0,0,1-14.07-14.082V91.156a13.619,13.619,0,0,1,4.141-9.988,13.431,13.431,0,0,1,9.929-4.145h36.074a13.433,13.433,0,0,1,9.929,4.145,13.623,13.623,0,0,1,4.141,9.988v26.667Zm56.531-10.587h36.523v10.587a14.061,14.061,0,0,1-14.071,14.082H413.873A14.147,14.147,0,0,1,399.8,117.823V91.156a14.147,14.147,0,0,1,14.071-14.132H462.62v-7.89H413.873a22.07,22.07,0,0,0-22,22.023v26.667a22.07,22.07,0,0,0,22,21.972h36.073a21.986,21.986,0,0,0,22-21.972V99.3H427.494v7.94Zm79.432-38.1a21.986,21.986,0,0,0-22,22.023v26.667a21.986,21.986,0,0,0,22,21.972H543a21.984,21.984,0,0,0,22-21.972V91.156a21.984,21.984,0,0,0-22-22.023H506.926Zm50.144,48.69A14.146,14.146,0,0,1,543,131.905H506.926a14.146,14.146,0,0,1-14.07-14.082V91.156A13.619,13.619,0,0,1,497,81.168a13.431,13.431,0,0,1,9.929-4.145H543a13.433,13.433,0,0,1,9.929,4.145,13.623,13.623,0,0,1,4.141,9.988v26.667Z" transform="translate(-25.969 -25)"/>
  <path id="Polygon_1_copy" data-name="Polygon 1 copy" class="cls-2" d="M94.717,179L29.981,141.5v-75L94.717,29l64.736,37.5v75Z" transform="translate(-25.969 -25)"/>
  <path id="Polygon_1" data-name="Polygon 1" class="cls-3" d="M94.717,179L29.981,141.5v-75L94.717,29V179Z" transform="translate(-25.969 -25)"/>
  <path id="Polygon_1_copy_2" data-name="Polygon 1 copy 2" class="cls-4" d="M94.717,179L29.981,141.5v-75L94.717,29l64.736,37.5v75Z" transform="translate(-25.969 -25)"/>
</svg>
